exercise-09
…
set.seed <- 1

permuted.slope <- d %>% 
  specify(logECV ~ logGS) %>% # select the columns of interest AND declare their relationship
  hypothesize(null = "independence") %>% # declare a null hypothesis 
  generate(reps = 1000, type = "permute") %>% # construct a null distribution
  calculate(stat = "slope") # calculates summary statistics from the output of infer core functions
permuted.slope

Response: logECV (numeric)
Explanatory: logGS (numeric)
Null Hypothesis: independence
# A tibble: 1,000 × 2
   replicate     stat
       <int>    <dbl>
 1         1  0.0852 
 2         2 -0.129  
 3         3  0.0480 
 4         4 -0.110  
 5         5 -0.206  
 6         6 -0.0576 
 7         7 -0.0703 
 8         8 -0.0237 
 9         9  0.00756
10        10 -0.119  
# ℹ 990 more rows
…
